2 2 5 5 5 5 5 5 5 5 5 5 5 5 5 5 5 5 5 5 5 5 5 5 5 5 5 2 s       : 
 2 2 5 5 5 5 5 5 5 5 5 5 5 5 5 5 5 5 5 5 5 5 5 5 5 5 5 A : : , . : 
 5 5 5 5 5 5 5 5 5 5 5 5 5 5 5 5 5 5 5 5 5 5 5 5 5 5 r . ; ; , ; : 
 5 5 5 5 5 5 5 5 5 5 5 5 5 5 5 5 5 5 5 5 5 5 5 5 2 X : : ; : : i : 
 5 5 5 5 5 5 5 5 5 5 5 5 5 5 5 5 5 5 5 5 5 5 2 2 i , ; ; , ; i . : 
 5 5 5 5 5 5 5 5 5 5 5 5 5 5 5 5 5 5 5 5 5 5 2 A : : ; : : i . : : 
 5 5 5 5 5 5 5 5 5 5 5 5 5 5 5 5 5 5 5 5 5 5 A : : ; : : ; . i 5 : 
 5 5 5 5 5 5 5 5 5 5 5 5 5 5 5 5 5 5 5 5 2 A i , ; : : i , . 2 5 : 
 5 5 5 5 5 5 5 5 5 5 5 5 5 5 5 5 5 5 5 2 A : : ; : : ; , ; 2 5 5 : 
 5 5 5 5 5 5 5 5 5 5 5 5 5 5 5 5 5 5 5 r , ; ; : ; ; , i 5 5 5 5 : 
 5 5 5 5 5 5 5 5 5 5 5 5 5 5 5 5 5 5 A : , ; : : : , ; 5 5 5 5 5 : 
 5 5 2 5 5 5 5 5 5 5 5 5 5 5 2 5 2 r : ; ; : : ; , i 2 5 5 5 2 5 : 
 5 5 5 5 5 5 5 5 5 5 5 5 5 5 5 2 A : , ; : : ; , ; 2 5 5 5 5 5 5 : 
 5 5 5 5 5 5 5 5 5 5 5 5 5 5 5 A : ; ; : : ; , ; 5 5 5 5 5 5 5 5 : 
 5 5 5 5 2 2 A A A A 2 5 5 5 A i , ; : : i . . 2 5 5 5 5 5 5 5 5 : 
 5 5 5 5 5 X ; . . . r A 2 A : , ; : : ; , ; 5 5 5 5 5 5 5 5 5 5 : 
 5 5 5 2 2 , .   .   . i 2 i : ; , : i , . 5 5 5 5 5 5 5 5 5 5 5 : 
 5 5 5 5 2 , .   . , X 2 . , ; : : ; , i 2 5 5 5 5 5 5 5 5 5 5 5 : 
 5 5 5 5 5 : ,   . i X : : ; , : : , i 5 5 5 5 5 5 5 5 5 5 5 5 5 : 
 5 5 5 5 5 5 ;     . , : ; : : i . s 2 5 5 5 5 5 5 5 5 5 5 5 5 5 : 
 5 5 2 5 5 5 2 ; .   . : , : ; : i 2 2 5 5 5 5 5 5 5 5 5 5 5 2 5 : 
 5 5 2 5 5 5 2 2 , .   . ; ; . , 5 2 2 5 5 5 5 5 5 5 5 5 5 5 2 5 : 
 5 5 5 5 5 5 2 2 , . .   . , r 2 r s A 5 5 5 5 5 5 5 5 5 5 5 5 5 : 
 5 5 5 5 5 5 i :     . .   . s s . . i 5 5 5 5 5 5 5 5 5 5 5 5 5 : 
 2 2 2 5 2 2 r .       . .   . ,   . i 5 5 5 5 5 5 5 5 5 5 5 5 5 : 
 5 5 5 5 i : .     . X 2 , .       . i 5 5 5 5 5 5 5 5 5 5 5 5 5 : 
 2 2 2 2 i .         X 5 2 i         ; 5 5 5 5 5 5 5 5 5 5 5 5 5 : 
 : : : :       , A 5 2 5 5 5 ; . . s 2 5 5 5 5 5 5 5 5 5 5 5 2 5 : 
 :           . , A 2 5 5 5 5 5 5 5 5 2 5 5 5 5 5 5 5 5 5 5 5 5 5 : 
 :         : r 5 2 5 5 5 5 5 5 5 5 5 2 5 5 5 5 5 5 5 5 5 5 5 5 5 : 
 :         : r 5 5 5 5 5 5 5 5 5 5 5 5 5 5 5 5 5 5 5 5 5 5 5 5 5 : 
 :         : r 5 5 5 5 5 5 5 5 5 5 5 5 5 5 5 5 5 5 5 5 5 5 5 5 5 : 
 